{
  "project_info": {
    "project_number": "448354721350",
    "firebase_url": "https://castle-of-dr-camian-e5f1d-default-rtdb.europe-west1.firebasedatabase.app",
    "project_id": "castle-of-dr-camian-e5f1d",
    "storage_bucket": "castle-of-dr-camian-e5f1d.appspot.com"
  },
  "client": [
    {
      "client_info": {
        "mobilesdk_app_id": "1:448354721350:android:87f0eba1258c6eea303447",
        "android_client_info": {
          "package_name": "com.RamoramaInteractive.AdventureGame"
        }
      },
      "oauth_client": [
        {
          "client_id": "448354721350-4m3e26o8g4ttbc0c4cfr6oeu8j049htb.apps.googleusercontent.com",
          "client_type": 3
        }
      ],
      "api_key": [
        {
          "current_key": "AIzaSyDWY45jvdT3yk95YfDJjjmxEWXvfJ1bsos"
        }
      ],
      "services": {
        "appinvite_service": {
          "other_platform_oauth_client": [
            {
              "client_id": "448354721350-4m3e26o8g4ttbc0c4cfr6oeu8j049htb.apps.googleusercontent.com",
              "client_type": 3
            }
          ]
        }
      }
    }
  ],
  "configuration_version": "1"
}